720.5 0
723.3 0.0001911
726.1 0
728.9 4.368e-05
731.7 0.0002512
734.6 0.0009187
737.4 0.0005702
740.2 0.002168
743 0.005174
745.8 0.008877
748.6 0.01385
751.5 0.0257
754.3 0.03692
757.1 0.05064
759.9 0.06843
762.7 0.09687
765.6 0.1294
768.4 0.1544
771.2 0.1888
774 0.2258
776.8 0.2614
779.6 0.285
782.5 0.324
785.3 0.3562
788.1 0.4137
790.9 0.4558
793.7 0.4926
796.6 0.5082
799.4 0.5351
802.2 0.55
805 0.5467
807.8 0.5207
810.6 0.5026
813.5 0.4441
816.3 0.4187
819.1 0.3636
821.9 0.3143
824.7 0.2732
827.5 0.2811
830.4 0.2644
833.2 0.2824
836 0.2884
838.8 0.331
841.6 0.3678
844.5 0.4673
847.3 0.5295
850.1 0.6544
852.9 0.7478
855.7 0.9034
858.5 0.9489
861.4 0.9524
864.2 1
867 0.8994
869.8 0.8539
872.6 0.6395
875.5 0.5768
878.3 0.4665
881.1 0.3246
883.9 0.2537
886.7 0.1663
889.5 0.1173
892.4 0.07347
895.2 0.04366
898 0.03062
900.8 0.02401
903.6 0.01457
906.4 0.007949
909.3 0.00436
912.1 0.001681
914.9 7.69e-06
917.7 0.001232
920.5 0
923.4 0.001043
926.2 0
929 0.002263
931.8 0
