-37.9
-37.66
-37.04
-36.31
-35.75
-35.49
-35.5
-35.65
-35.83
-35.96
-36.03
-36.06
-36.08
-36.1
-36.13
-36.17
-36.21
-36.24
-36.27
-36.29
-36.3
-36.31
-36.33
-36.35
-36.37
-36.38
-36.4
-36.4
-36.39
-36.38
-36.37
-36.37
-36.38
-36.4
-36.41
-36.41
-36.41
-36.41
-36.4
-36.4
-36.4
-36.4
-36.4
-36.4
-36.4
-36.4
-36.41
-36.43
-36.44
-36.44
-36.42
-36.4
-36.36
-36.33
-36.31
-36.3
-36.3
-36.29
-36.28
-36.27
-36.27
-36.27
-36.28
-36.29
-36.3
-36.31
-36.32
-36.34
-36.35
-36.35
-36.36
-36.36
-36.36
-36.37
-36.38
